; ModuleID = 'foo.bc'
target datalayout = "e-p:64:64:64-i1:8:8-i8:8:8-i16:16:16-i32:32:32-i64:64:64-f32:32:32-f64:64:64-v64:64:64-v128:128:128-a0:0:64-s0:64:64-f80:128:128-n8:16:32:64-S128"
target triple = "x86_64-redhat-linux-gnu"

define i32 @foo(i32 %x) {
entry:
  %x1 = alloca i32
  store i32 %x, i32* %x1
  %x2 = load i32* %x1
  %"+" = add i32 %x2, 1
  ret i32 %"+"
}
